<svg width="32" height="40" viewBox="0 0 32 40" fill="none" xmlns="http://www.w3.org/2000/svg">
<path d="M16 26.3479C24.6773 26.3479 32 27.7579 32 33.1979C32 38.64 24.6292 40 16 40C7.32475 40 0 38.59 0 33.1499C0 27.7079 7.37076 26.3479 16 26.3479ZM16 0C21.8782 0 26.588 4.70805 26.588 10.5821C26.588 16.4562 21.8782 21.1662 16 21.1662C10.1238 21.1662 5.41203 16.4562 5.41203 10.5821C5.41203 4.70805 10.1238 0 16 0Z" fill="#1C1C1C"/>
</svg>
